…
---
### Data

```r
starwars
```

```
## # A tibble: 87 x 13
##    name     height  mass hair_color skin_color eye_color birth_year gender
##    <chr>     <int> <dbl> <chr>      <chr>      <chr>          <dbl> <chr> 
##  1 Luke Sk~    172  77.0 blond      fair       blue            19.0 male  
##  2 C-3PO       167  75.0 <NA>       gold       yellow         112   <NA>  
##  3 R2-D2        96  32.0 <NA>       white, bl~ red             33.0 <NA>  
##  4 Darth V~    202 136   none       white      yellow          41.9 male  
##  5 Leia Or~    150  49.0 brown      light      brown           19.0 female
##  6 Owen La~    178 120   brown, gr~ light      blue            52.0 male  
##  7 Beru Wh~    165  75.0 brown      light      blue            47.0 female
##  8 R5-D4        97  32.0 <NA>       white, red red             NA   <NA>  
##  9 Biggs D~    183  84.0 black      light      brown           24.0 male  
## 10 Obi-Wan~    182  77.0 auburn, w~ fair       blue-gray       57.0 male  
## # ... with 77 more rows, and 5 more variables: homeworld <chr>,
## #   species <chr>, films <list>, vehicles <list>, starships <list>
```

---
### `select()`

```r
# Pick columns
select(starwars, name, species)
```

```
## # A tibble: 87 x 2
##    name               species
##    <chr>              <chr>  
##  1 Luke Skywalker     Human  
##  2 C-3PO              Droid  
##  3 R2-D2              Droid  
##  4 Darth Vader        Human  
##  5 Leia Organa        Human  
##  6 Owen Lars          Human  
##  7 Beru Whitesun lars Human  
##  8 R5-D4              Droid  
##  9 Biggs Darklighter  Human  
## 10 Obi-Wan Kenobi     Human  
## # ... with 77 more rows
```
…
---
### `arrange()`

```r
# Reorder rows
arrange(starwars, desc(mass))
```

```
## # A tibble: 87 x 13
##    name    height  mass hair_color  skin_color eye_color birth_year gender
##    <chr>    <int> <dbl> <chr>       <chr>      <chr>          <dbl> <chr> 
##  1 Jabba ~    175  1358 <NA>        green-tan~ orange         600   herma~
##  2 Grievo~    216   159 none        brown, wh~ green, y~       NA   male  
##  3 IG-88      200   140 none        metal      red             15.0 none  
##  4 Darth ~    202   136 none        white      yellow          41.9 male  
##  5 Tarfful    234   136 brown       brown      blue            NA   male  
##  6 Owen L~    178   120 brown, grey light      blue            52.0 male  
##  7 Bossk      190   113 none        green      red             53.0 male  
##  8 Chewba~    228   112 brown       unknown    blue           200   male  
##  9 Jek To~    180   110 brown       fair       blue            NA   male  
## 10 Dexter~    198   102 none        brown      yellow          NA   male  
## # ... with 77 more rows, and 5 more variables: homeworld <chr>,
## #   species <chr>, films <list>, vehicles <list>, starships <list>
```
…
---
### `mutate()`

```r
# Add a column
starwars %>% 
  mutate(bmi = mass / ((height / 100)  ^ 2)) %>% 
  select(name:mass, bmi)
```

```
## # A tibble: 87 x 4
##    name               height  mass   bmi
##    <chr>               <int> <dbl> <dbl>
##  1 Luke Skywalker        172  77.0  26.0
##  2 C-3PO                 167  75.0  26.9
##  3 R2-D2                  96  32.0  34.7
##  4 Darth Vader           202 136    33.3
##  5 Leia Organa           150  49.0  21.8
##  6 Owen Lars             178 120    37.9
##  7 Beru Whitesun lars    165  75.0  27.5
##  8 R5-D4                  97  32.0  34.0
##  9 Biggs Darklighter     183  84.0  25.1
## 10 Obi-Wan Kenobi        182  77.0  23.2
## # ... with 77 more rows
```

---
### `group_by()` and `count()`

```r
# Group rows with same value and calculate frequency
starwars %>% 
  group_by(species) %>% 
  count(species, sort = TRUE)
```

```
## # A tibble: 38 x 2
## # Groups:   species [38]
##    species      n
##    <chr>    <int>
##  1 Human       35
##  2 Droid        5
##  3 <NA>         5
##  4 Gungan       3
##  5 Kaminoan     2
##  6 Mirialan     2
##  7 Twi'lek      2
##  8 Wookiee      2
##  9 Zabrak       2
## 10 Aleena       1
## # ... with 28 more rows
```
…
